{
    "pagination": {
        "total": 100,
        "per_page": 10,
        "current_page": 1,
        "last_page": 10
    },
     "data": [
        {
            "id": 1,
            "name": "Nike Black T-Shirt",
            "price": 1000,
            "stock": 10,
            "category": {
                "id": 1,
                "name": "Shirt"
            }
        },
        {
            "id": 2,
            "name": "Nike Air Jordan",
            "price": 1000,
            "stock": 11,
            "category": {
                "id": 2,
                "name": "Shoe"
            }
        },
        {
            "id": 3,
            "name": "Apple Vision Pro",
            "price": 5000,
            "stock": 5,
            "category": {
                "id": 3,
                "name": "Electronic"
            }
        },
        {
            "id": 4,
            "name": "Addidas Samba",
            "price": 2000,
            "stock": 5,
            "category": {
                "id": 3,
                "name": "Electronic"
            }
        },
        {
            "id": 5,
            "name": "Macbook M1",
            "price": 2000,
            "stock": 3,
            "category": {
                "id": 3,
                "name": "Electronic"
            }
        }
    ]
}